[gd_scene load_steps=4 format=2]

[ext_resource path="res://fonts/NovaMono for Powerline.ttf" type="DynamicFontData" id=1]
[ext_resource path="res://scripts/menu_button.gd" type="Script" id=2]

[sub_resource type="DynamicFont" id=1]
size = 50
use_mipmaps = true
use_filter = true
font_data = ExtResource( 1 )

[node name="Button" type="Button"]
margin_right = 400.0
margin_bottom = 100.0
custom_fonts/font = SubResource( 1 )
text = "LABEL"
script = ExtResource( 2 )
__meta__ = {
"_edit_use_anchors_": false
}
