[gd_scene load_steps=2 format=2]

[ext_resource path="res://scenes/menu/buttons/menu_button.tscn" type="PackedScene" id=1]

[node name="Button" instance=ExtResource( 1 )]
custom_constants/hseparation = 0
text = "PLAY"
