[gd_scene load_steps=5 format=2]

[ext_resource path="res://fonts/NovaMono for Powerline.ttf" type="DynamicFontData" id=1]
[ext_resource path="res://scripts/title.gd" type="Script" id=2]
[ext_resource path="res://scenes/menu/buttons/menu_button.tscn" type="PackedScene" id=3]

[sub_resource type="DynamicFont" id=1]
size = 64
font_data = ExtResource( 1 )

[node name="title" type="Node2D"]
script = ExtResource( 2 )

[node name="menu" type="VBoxContainer" parent="."]
margin_left = 100.0
margin_top = 100.0
margin_right = 924.0
margin_bottom = 500.0
size_flags_horizontal = 3
custom_constants/separation = 80
__meta__ = {
"_edit_use_anchors_": false
}

[node name="title" type="Label" parent="menu"]
margin_right = 824.0
margin_bottom = 90.0
custom_fonts/font = SubResource( 1 )
text = "Shots Papers Scissors"
align = 1

[node name="buttons" type="VBoxContainer" parent="menu"]
margin_top = 170.0
margin_right = 824.0
margin_bottom = 247.0
custom_constants/separation = 40
alignment = 1

[node name="play" parent="menu/buttons" instance=ExtResource( 3 )]
margin_right = 824.0
margin_bottom = 77.0
text = "PLAY"
